{
  "table_name": "cargo",
  "description": "Cargos disponibles para una determinada convocatoria.",
  "primary_key": "id_cargo",
  "atributes": [
    {
      "name": "nombre",
      "type": "string",
      "unique": true,
      "example": "Auxiliar de docencia"
    },
    {
      "name": "materia",
      "type": "string",
      "unique": true,
      "example": "Algoritmos y Programación"
    },
    {
      "name": "sigla",
      "type": "string",
      "unique": true,
      "example": "INF-121"
    }
  ],
  "foreign_keys": [],
  "access_get": "ROL_KARDEX, ROL_TRIBUNAL, ROL_POSTULANTE",
  "access_post": "ROL_KARDEX",
  "access_put": "ROL_KARDEX",
  "access_delete": "ROL_KARDEX"
}
