{
  "table_name": "certificado",
  "primary_key": "id_certificado",
  "atributes": [
    {
      "name": "titulo",
      "type": "string",
      "unique": true,
      "example": "XXIII Congreso Nacional de Ciencias de la Computación CCBOL 2016 - Plenarias"
    },
    {
      "name": "tipo_presencia",
      "type": "string",
      "unique": true,
      "example": "Curso Asistido",
      "values": "Curso Asistido, Curso Aprobado"
    },
    {
      "name": "resolucion",
      "type": "int",
      "unique": true,
      "example": 1,
      "values": "0, 1",
      "note": "0 = Sin resolución, 1 = Con resolución"
    },
    {
      "name": "categoria",
      "type": "string",
      "unique": true,
      "example": "Pedagogía",
      "values": "Pedagogía, Congreso, Experiencia, Participación"
    },
    {
      "name": "estado",
      "type": "string",
      "unique": false,
      "example": "Borrador",
      "values": "Registrado, Enviado, Recibido, Validado, Observado, Anulado"
    },
    {
      "name": "puntaje",
      "type": "double",
      "unique": false,
      "example": 0.5,
      "note": "Este valor se crea y actualiza automáticamente, en base al contenido del certificado."
    },
    {
      "name": "gestion",
      "type": "int",
      "unique": true,
      "example": 2016
    },
    {
      "name": "periodo",
      "type": "int",
      "unique": true,
      "example": 0,
      "values": "0, 1, 2",
      "note": "0 = Ninguno, 1 = 1er Periodo (I), 2 = 2do Periodo (II)"
    }
  ],
  "foreign_keys": [
    {
      "table_name": "usuario",
      "name": "id_usuario",
      "unique": true,
      "example": 5
    }
  ],
  "access_get": "ROL_KARDEX, ROL_TRIBUNAL, ROL_POSTULANTE",
  "access_post": "ROL_POSTULANTE",
  "access_put": "ROL_KARDEX, ROL_TRIBUNAL, ROL_POSTULANTE",
  "access_delete": "ROL_POSTULANTE"
}
