{
  "table_name": "rol",
  "primary_key": "id_rol",
  "atributes": [
    {
      "name": "nombre",
      "type": "string",
      "unique": true,
      "example": "Kardex",
      "values": "Kardex, Tribunal, Postulante"
    }
  ],
  "foreign_keys": [],
  "access_get": "ROL_KARDEX",
  "access_post": "ROL_KARDEX",
  "access_put": "ROL_KARDEX",
  "access_delete": "ROL_KARDEX"
}
