{
  "report_name": "reporte_certificado_categoria",
  "description": "Devuelve todos los certificados de una determinada categoría.",
  "select": [
    {
      "table_name": "certificado",
      "attributes": [
        {
          "name": "id_certificado",
          "as": "id_certificado",
          "type": "int"
        },
        {
          "name": "titulo",
          "as": "titulo",
          "type": "string"
        },
        {
          "name": "tipo_presencia",
          "as": "tipo_presencia",
          "type": "string"
        },
        {
          "name": "resolucion",
          "as": "resolucion",
          "type": "int"
        },
        {
          "name": "categoria",
          "as": "categoria",
          "type": "string"
        },
        {
          "name": "estado",
          "as": "estado",
          "type": "string"
        },
        {
          "name": "puntaje",
          "as": "puntaje",
          "type": "double"
        },
        {
          "name": "gestion",
          "as": "gestion",
          "type": "int"
        },
        {
          "name": "periodo",
          "as": "periodo",
          "type": "int"
        }
      ]
    }
  ],
  "from": [
    "certificado"
  ],
  "where": [],
  "inputs": [
    {
      "table_name": "certificado",
      "attributes": [
        {
          "name": "categoria",
          "is_key": false,
          "type": "string"
        }
      ]
    }
  ],
  "access_post": "ROL_KARDEX, ROL_TRIBUNAL, ROL_POSTULANTE"
}
